<svg width="24" height="24" viewBox="0 0 24 24" xmlns="http://www.w3.org/2000/svg">
    <g fill="none" fill-rule="evenodd">
        <rect fill="none" width="24" height="24" rx="4"/>
        <path stroke="#0A71C6" stroke-width="2" stroke-linecap="round" stroke-linejoin="round" d="m15.5 5-7 7 7 7"/>
    </g>
</svg>
